digraph "/home/val/Documents/GenieLogiciel/L3_GL_etudiant/TP_documentation/drunk_player/src/drunk_player/Filesystem.hpp"
{
  edge [fontname="Helvetica",fontsize="10",labelfontname="Helvetica",labelfontsize="10"];
  node [fontname="Helvetica",fontsize="10",shape=record];
  Node3 [label="/home/val/Documents\l/GenieLogiciel/L3_GL\l_etudiant/TP_documentation\l/drunk_player/src/drunk_player\l/Filesystem.hpp",height=0.2,width=0.4,color="black", fillcolor="grey75", style="filled", fontcolor="black"];
  Node3 -> Node4 [dir="back",color="midnightblue",fontsize="10",style="solid",fontname="Helvetica"];
  Node4 [label="/home/val/Documents\l/GenieLogiciel/L3_GL\l_etudiant/TP_documentation\l/drunk_player/src/drunk_player\l/Filesystem.cpp",height=0.2,width=0.4,color="black", fillcolor="white", style="filled",URL="$Filesystem_8cpp.html"];
  Node3 -> Node5 [dir="back",color="midnightblue",fontsize="10",style="solid",fontname="Helvetica"];
  Node5 [label="/home/val/Documents\l/GenieLogiciel/L3_GL\l_etudiant/TP_documentation\l/drunk_player/src/drunk_player\l/Player.cpp",height=0.2,width=0.4,color="black", fillcolor="white", style="filled",URL="$Player_8cpp.html"];
}
